"Part";"Value";"Device";"Package";"Description";"COMPANY-URL";"CREATED-BY";"CREATED-DATE";"DATASHEET-URL";"MANUFACTURER";"MF";"MPN";"OC_FARNELL";"OC_NEWARK";
"AIN";"PB_CN";"61300411821";"61300411821";"WR-PHD 2.54mm Socket Header, 4 Pins =>Code : Con_BTB_SHD_2.54_1_THT_61300411821";"";"";"";"";"";"";"";"";"";
"C1";"1nF";"C-EUC0603K";"C0603K";"CAPACITOR, European symbol";"";"";"";"";"";"";"";"";"";
"C2";"100nF";"C-EUC0603K";"C0603K";"CAPACITOR, European symbol";"";"";"";"";"";"";"";"";"";
"C3";"1nF";"C-EUC0603K";"C0603K";"CAPACITOR, European symbol";"";"";"";"";"";"";"";"";"";
"C4";"10nF";"C-EUC0603K";"C0603K";"CAPACITOR, European symbol";"";"";"";"";"";"";"";"";"";
"C5";"680nF";"C-EUC0603K";"C0603K";"CAPACITOR, European symbol";"";"";"";"";"";"";"";"";"";
"C6";"100nF";"C-EUC0603K";"C0603K";"CAPACITOR, European symbol";"";"";"";"";"";"";"";"";"";
"C7";"100nF";"C-EUC0603K";"C0603K";"CAPACITOR, European symbol";"";"";"";"";"";"";"";"";"";
"C8";"100nF";"C-EUC0603K";"C0603K";"CAPACITOR, European symbol";"";"";"";"";"";"";"";"";"";
"C9";"1uF";"C-EUC0603K";"C0603K";"CAPACITOR, European symbol";"";"";"";"";"";"";"";"";"";
"C10";"100nF";"C-EUC0603K";"C0603K";"CAPACITOR, European symbol";"";"";"";"";"";"";"";"";"";
"C11";"330nF";"C-EUC0603K";"C0603K";"CAPACITOR, European symbol";"";"";"";"";"";"";"";"";"";
"D1";"LED";"WL-SBTW-150141YB73100-Y&B";"3528";"SMD bi-color TOP LED";"http://www.we-online.de";"Christin Otto";"APR 2013";"http://katalog.we-online.de/en/led/WL-SBTW?m=t&sq=sbtw&sp=&sp=http%3A%2F%2Fwww.we-online.de%2Fweb%2Fen%2Felectronic_components%2Fsearchpage_PBS.php%3Fsearch%3Dsbtw";"W?rth Elektronik eiSos GmbH";"";"";"";"";
"IC1";"STM8S105K6T";"STM8S105K6T";"LQFP32-7X7";"Access line, 16 MHz STM8S 8-bit MCU up to 32 Kbytes Flash, integrated EEPROM,10-bit ADC, timers, UART, SPI, I?C";"";"";"";"";"";"";"STM8S105K6T6C";"1706224";"09R6035";
"IC2";"UA78M05CDCYR";"VREG_MULTI";"SOT223";"standard package voltage regulator";"";"";"";"";"";"";"";"";"";
"IO";"IO_CN";"61300411821";"61300411821";"WR-PHD 2.54mm Socket Header, 4 Pins =>Code : Con_BTB_SHD_2.54_1_THT_61300411821";"";"";"";"";"";"";"";"";"";
"J1";"HDMI In";"685119134923";"685119134923";"WR-COM SMT Horizontal HDMI, 19 pins=>Code : Con_I-O_COM_HDMI_685119134923";"";"";"";"";"";"";"";"";"";
"J2";"HDMI Out";"685119134923";"685119134923";"WR-COM SMT Horizontal HDMI, 19 pins=>Code : Con_I-O_COM_HDMI_685119134923";"";"";"";"";"";"";"";"";"";
"J3";"SENSOR_CN";"662104145021";"662104145021";"WR-MPC3 3.00mm Male Single Row SMT Angled Header SMT Fitting Nail Clip, 4 Pins=>Code : Con_WTB_MPC3_1_PCB_662104145021";"";"";"";"";"";"";"";"";"";
"L1";"";"BLM15HB121SN1";"0402";"EMIFIL (R) Chip Ferrite Bead for GHz Noise";"";"";"";"";"";"";"";"";"";
"OUT";"SENSOR_CN";"662104145021";"662104145021";"WR-MPC3 3.00mm Male Single Row SMT Angled Header SMT Fitting Nail Clip, 4 Pins=>Code : Con_WTB_MPC3_1_PCB_662104145021";"";"";"";"";"";"";"";"";"";
"OUT1";"SENSOR_CN";"662104145021";"662104145021";"WR-MPC3 3.00mm Male Single Row SMT Angled Header SMT Fitting Nail Clip, 4 Pins=>Code : Con_WTB_MPC3_1_PCB_662104145021";"";"";"";"";"";"";"";"";"";
"Q1";"MMBT3904";"NPN-TRANSISTOR_SOT23";"SOT23";"NPN TRANSISTOR";"";"";"";"";"";"";"";"";"";
"Q2";"16MHz";"RESONATOR-MURATACST_CE";"RESONATOR_MURATA2";"Murata ceramic Resonator "ceralock" CSTCE series";"";"";"";"";"";"";"";"";"";
"R1";"10K";"R-TRIMM3314G";"RTRIM3314G";"Trimm resistor";"";"";"";"";"";"";"";"";"";
"R2";"1K";"R-EU_R0603";"R0603";"RESISTOR, European symbol";"";"";"";"";"";"";"";"";"";
"R3";"100";"R-EU_R0603";"R0603";"RESISTOR, European symbol";"";"";"";"";"";"";"";"";"";
"R4";"60";"R-EU_R0603";"R0603";"RESISTOR, European symbol";"";"";"";"";"";"";"";"";"";
"R5";"10k";"R-EU_R0603";"R0603";"RESISTOR, European symbol";"";"";"";"";"";"";"";"";"";
"R6";"680";"R-EU_R0603";"R0603";"RESISTOR, European symbol";"";"";"";"";"";"";"";"";"";
"R7";"10K";"R-EU_R0603";"R0603";"RESISTOR, European symbol";"";"";"";"";"";"";"";"";"";
"R8";"10K";"R-EU_R0603";"R0603";"RESISTOR, European symbol";"";"";"";"";"";"";"";"";"";
"R9";"510";"R-EU_R0603";"R0603";"RESISTOR, European symbol";"";"";"";"";"";"";"";"";"";
"R10";"NC";"R-EU_R0603";"R0603";"RESISTOR, European symbol";"";"";"";"";"";"";"";"";"";
"R11";"0";"R-EU_R0603";"R0603";"RESISTOR, European symbol";"";"";"";"";"";"";"";"";"";
"R12";"0";"R-EU_R0603";"R0603";"RESISTOR, European symbol";"";"";"";"";"";"";"";"";"";
"R13";"NC";"R-EU_R0603";"R0603";"RESISTOR, European symbol";"";"";"";"";"";"";"";"";"";
"RST";"SPST_SKRKAWW010";"SPST_SKRKAWW010";"SKRKAEE010";"";"";"";"";"";"";"";"";"";"";
"SENSOR";"SENSOR_CN";"61300411821";"61300411821";"WR-PHD 2.54mm Socket Header, 4 Pins =>Code : Con_BTB_SHD_2.54_1_THT_61300411821";"";"";"";"";"";"";"";"";"";
"SENSOR1";"SENSOR_CN";"61300411821";"61300411821";"WR-PHD 2.54mm Socket Header, 4 Pins =>Code : Con_BTB_SHD_2.54_1_THT_61300411821";"";"";"";"";"";"";"";"";"";
"SJ1";"SDA_SJ";"SJ";"SJ";"SMD solder JUMPER";"";"";"";"";"";"";"";"";"";
"SJ2";"SCL_SJ";"SJ";"SJ";"SMD solder JUMPER";"";"";"";"";"";"";"";"";"";
"SJ3";"EN_SJ";"SJ2WW";"SJ_2W";"SMD solder JUMPER";"";"";"";"";"";"";"";"";"";
"SJ4";"HOTPLUG_SJ";"SJ";"SJ";"SMD solder JUMPER";"";"";"";"";"";"";"";"";"";
"SJ5";"5V_SJ";"SJ";"SJ";"SMD solder JUMPER";"";"";"";"";"";"";"";"";"";
"SPI";"SPI_CN";"61300411821";"61300411821";"WR-PHD 2.54mm Socket Header, 4 Pins =>Code : Con_BTB_SHD_2.54_1_THT_61300411821";"";"";"";"";"";"";"";"";"";
"SWIN";"";"61300411821";"61300411821";"WR-PHD 2.54mm Socket Header, 4 Pins =>Code : Con_BTB_SHD_2.54_1_THT_61300411821";"";"";"";"";"";"";"";"";"";
"UART";"UART_CN";"61300411821";"61300411821";"WR-PHD 2.54mm Socket Header, 4 Pins =>Code : Con_BTB_SHD_2.54_1_THT_61300411821";"";"";"";"";"";"";"";"";"";
