﻿"Symbol";"Value";"Unit";
"SUPPLIER_NAME";"RS Components";"";
"TraceParts.PartVersion";"1.0.1";"";
"SUPPLIER";"Wurth Elektronik";"";
"TraceParts.PartStatus";"Published";"";
"TRACEPARTS";"TRACEPARTS";"";
"RS_STOCK_NUMBER";"8282657";"";
"REVISION";"A";"";
"DESIGN";"WR-MPC3 3.00 Right Angle SMT Header 04p";"";
"TraceParts.InstanceId";"10-29022016-126658BAZQ0GAS1QELLMTM3VZHEKPXV";"";
"TraceParts.PartLanguage";"en";"";
"TraceParts.PartTitle";"WR-MPC3 3.00 Right Angle SMT Header 04p";"";
"REFERENCE";"662104145021";"";
"TIMESTAMP";"19/2/2016 17:29:39";"";
"TraceParts.PartNumber";"10-29022016-126658";"";
"TraceParts.PartStatusId";"";"";
"TraceParts.ClassPath";"RS_COMPONENTS:10-29022016-126658";"";
