Version 4
SHEET 1 2442 676
WIRE 176 192 176 128
WIRE 176 336 176 272
WIRE 176 432 176 400
WIRE 272 432 176 432
WIRE 448 432 272 432
WIRE 176 480 176 432
WIRE 112 528 16 528
WIRE 272 544 272 432
WIRE 176 656 176 576
WIRE 272 656 272 608
FLAG 176 656 0
FLAG 272 656 0
SYMBOL npn 112 480 R0
SYMATTR InstName Q1
SYMBOL cap 256 544 R0
SYMATTR InstName C1
SYMBOL cap 256 544 R0
SYMATTR InstName C2
SYMBOL res 160 176 R0
SYMATTR InstName R1
SYMBOL res -64 464 R0
SYMATTR InstName R2
SYMBOL LED 160 336 R0
SYMATTR InstName D1
